Foundations for inference - Sampling distributions
…
The resulting sample means would be stored each time in a separate object.

Note that for each of the 15,000 times a mean was computed, it was done from a different sample!

Exercise 3: To make sure you understand how sampling distributions are built and exactly what the rep_sample_n function is doing, try modifying the code to create a sampling distribution of 25 sample means from samples of size 10, and put them in a data frame named sample_means_small. Print the output. How many observations are there in this object called sample_means_small? What does each observation represent?

sample_means_small <- ames %>%
                    rep_sample_n(size = 10, reps = 25, replace = TRUE) %>%
                    summarize(x_bar = mean(area))
sample_means_small

# A tibble: 25 x 2
   replicate x_bar
       <int> <dbl>
 1         1 1647.
 2         2 1500.
 3         3 1783.
 4         4 1286.
 5         5 1506.
 6         6 1535.
 7         7 1677.
 8         8 1355.
 9         9 1508.
10        10 1797 
#  with 15 more rows
…
